…
    ## `summarise()` has grouped output by 'district'. You can override using the `.groups` argument.

``` r
tabla1
```

    ## # A tibble: 75 x 4
    ## # Groups:   district [21]
    ##    district    room_type       wh_avg_review median_price
    ##    <chr>       <chr>                   <dbl>        <dbl>
    ##  1 Arganzuela  Entire home/apt          4.69           70
    ##  2 Arganzuela  Hotel room               4.45           19
    ##  3 Arganzuela  Private room             4.65           31
    ##  4 Arganzuela  Shared room              4.66           44
    ##  5 Barajas     Entire home/apt          4.73           86
    ##  6 Barajas     Private room             4.76           35
    ##  7 Barajas     Shared room              4.90           37
    ##  8 Carabanchel Entire home/apt          4.54           70
    ##  9 Carabanchel Private room             4.70           26
    ## 10 Carabanchel Shared room              4.63           21
    ## # ... with 65 more rows
…
#join de ambos df para añadir combinaciones que faltaban
reviews_wpred <- reviews %>% 
  full_join(df) %>% 
  arrange(district,mes) %>% 
  #convertimos los NAs que acabamos de introducir en 0
  mutate(reviews_number = ifelse(is.na(reviews_number), 0, reviews_number))
```

    ## Joining, by = c("district", "mes")

``` r
reviews_wpred
```

    ## # A tibble: 2,688 x 3
    ##    reviews_number district   mes    
    ##             <dbl> <chr>      <chr>  
    ##  1              1 Arganzuela 2011-01
    ##  2              0 Arganzuela 2011-02
    ##  3              1 Arganzuela 2011-03
    ##  4              1 Arganzuela 2011-04
    ##  5              1 Arganzuela 2011-05
    ##  6              1 Arganzuela 2011-06
    ##  7              1 Arganzuela 2011-07
    ##  8              1 Arganzuela 2011-08
    ##  9              1 Arganzuela 2011-09
    ## 10              1 Arganzuela 2011-10
    ## # ... with 2,678 more rows
…
